{"titles": [{"id": 1230157, "title": "Like Water for Chocolate", "year": 1992, "imdb_id": "tt0103994", "tmdb_id": 18183, "tmdb_type": "movie", "type": "movie"}, {"id": 1589918, "title": "Spider-Man: No Way Home", "year": 2021, "imdb_id": "tt10872600", "tmdb_id": 634649, "tmdb_type": "movie", "type": "movie"}, {"id": 1496273, "title": "Dune", "year": 2021, "imdb_id": "tt1160419", "tmdb_id": 438631, "tmdb_type": "movie", "type": "movie"}, {"id": 1601276, "title": "Don't Look Up", "year": 2021, "imdb_id": "tt11286314", "tmdb_id": 646380, "tmdb_type": "movie", "type": "movie"}, {"id": 1592164, "title": "The Mauritanian", "year": 2021, "imdb_id": "tt4761112", "tmdb_id": 644583, "tmdb_type": "movie", "type": "movie"}, {"id": 1617655, "title": "My Octopus Teacher", "year": 2020, "imdb_id": "tt12888462", "tmdb_id": 682110, "tmdb_type": "movie", "type": "movie"}, {"id": 1612493, "title": "Zack Snyder's Justice League", "year": 2021, "imdb_id": "tt12361974", "tmdb_id": 791373, "tmdb_type": "movie", "type": "movie"}, {"id": 1567837, "title": "Shang-Chi and the Legend of the Ten Rings", "year": 2021, "imdb_id": "tt9376612", "tmdb_id": 566525, "tmdb_type": "movie", "type": "movie"}, {"id": 1534152, "title": "Free Guy", "year": 2021, "imdb_id": "tt6264654", "tmdb_id": 550988, "tmdb_type": "movie", "type": "movie"}, {"id": 1501613, "title": "Black Widow", "year": 2021, "imdb_id": "tt3480822", "tmdb_id": 497698, "tmdb_type": "movie", "type": "movie"}, {"id": 1496510, "title": "The Suicide Squad", "year": 2021, "imdb_id": "tt6334354", "tmdb_id": 436969, "tmdb_type": "movie", "type": "movie"}, {"id": 1490260, "title": "Eternals", "year": 2021, "imdb_id": "tt9032400", "tmdb_id": 524434, "tmdb_type": "movie", "type": "movie"}, {"id": 157269, "title": "No Time to Die", "year": 2021, "imdb_id": "tt2382320", "tmdb_id": 370172, "tmdb_type": "movie", "type": "movie"}, {"id": 1618750, "title": "Encanto", "year": 2021, "imdb_id": "tt2953050", "tmdb_id": 568124, "tmdb_type": "movie", "type": "movie"}, {"id": 1586906, "title": "Venom: Let There Be Carnage", "year": 2021, "imdb_id": "tt7097896", "tmdb_id": 580489, "tmdb_type": "movie", "type": "movie"}, {"id": 1586886, "title": "The Matrix Resurrections", "year": 2021, "imdb_id": "tt10838180", "tmdb_id": 624860, "tmdb_type": "movie", "type": "movie"}, {"id": 1583847, "title": "Nobody", "year": 2021, "imdb_id": "tt7888964", "tmdb_id": 615457, "tmdb_type": "movie", "type": "movie"}, {"id": 1580628, "title": "Togo", "year": 2019, "imdb_id": "tt5116302", "tmdb_id": 606856, "tmdb_type": "movie", "type": "movie"}, {"id": 1515637, "title": "A Quiet Place Part II", "year": 2021, "imdb_id": "tt8332922", "tmdb_id": 520763, "tmdb_type": "movie", "type": "movie"}, {"id": 1510060, "title": "Cruella", "year": 2021, "imdb_id": "tt3228774", "tmdb_id": 337404, "tmdb_type": "movie", "type": "movie"}, {"id": 1318351, "title": "Red Notice", "year": 2021, "imdb_id": "tt7991608", "tmdb_id": 512195, "tmdb_type": "movie", "type": "movie"}, {"id": 1583797, "title": "The Tomorrow War", "year": 2021, "imdb_id": "tt9777666", "tmdb_id": 588228, "tmdb_type": "movie", "type": "movie"}, {"id": 1553969, "title": "Ghostbusters: Afterlife", "year": 2021, "imdb_id": "tt4513678", "tmdb_id": 425909, "tmdb_type": "movie", "type": "movie"}, {"id": 1150091, "title": "Godzilla vs. Kong", "year": 2021, "imdb_id": "tt5034838", "tmdb_id": 399566, "tmdb_type": "movie", "type": "movie"}, {"id": 1630818, "title": "Boiling Point", "year": 2021, "imdb_id": "tt11127680", "tmdb_id": 807196, "tmdb_type": "movie", "type": "movie"}, {"id": 1617157, "title": "Luca", "year": 2021, "imdb_id": "tt12801262", "tmdb_id": 508943, "tmdb_type": "movie", "type": "movie"}, {"id": 1590821, "title": "Wrath of Man", "year": 2021, "imdb_id": "tt11083552", "tmdb_id": 637649, "tmdb_type": "movie", "type": "movie"}, {"id": 1560906, "title": "Army of the Dead", "year": 2021, "imdb_id": "tt0993840", "tmdb_id": 503736, "tmdb_type": "movie", "type": "movie"}, {"id": 1559743, "title": "Mortal Kombat", "year": 2021, "imdb_id": "tt0293429", "tmdb_id": 460465, "tmdb_type": "movie", "type": "movie"}, {"id": 1195601, "title": "Jungle Cruise", "year": 2021, "imdb_id": "tt0870154", "tmdb_id": 451048, "tmdb_type": "movie", "type": "movie"}, {"id": 1623442, "title": "CODA", "year": 2021, "imdb_id": "tt10366460", "tmdb_id": 776503, "tmdb_type": "movie", "type": "movie"}, {"id": 1611147, "title": "Old", "year": 2021, "imdb_id": "tt10954652", "tmdb_id": 631843, "tmdb_type": "movie", "type": "movie"}, {"id": 1584535, "title": "The Last Duel", "year": 2021, "imdb_id": "tt4244994", "tmdb_id": 617653, "tmdb_type": "movie", "type": "movie"}, {"id": 1578413, "title": "The Power of the Dog", "year": 2021, "imdb_id": "tt10293406", "tmdb_id": 600583, "tmdb_type": "movie", "type": "movie"}, {"id": 1576133, "title": "Nightmare Alley", "year": 2021, "imdb_id": "tt7740496", "tmdb_id": 597208, "tmdb_type": "movie", "type": "movie"}, {"id": 1563088, "title": "Nomadland", "year": 2021, "imdb_id": "tt9770150", "tmdb_id": 581734, "tmdb_type": "movie", "type": "movie"}, {"id": 1608802, "title": "House of Gucci", "year": 2021, "imdb_id": "tt11214590", "tmdb_id": 644495, "tmdb_type": "movie", "type": "movie"}, {"id": 1511201, "title": "The Farewell", "year": 2019, "imdb_id": "tt8637428", "tmdb_id": 565310, "tmdb_type": "movie", "type": "movie"}, {"id": 1561997, "title": "Last Night in Soho", "year": 2021, "imdb_id": "tt9639470", "tmdb_id": 576845, "tmdb_type": "movie", "type": "movie"}, {"id": 1500837, "title": "The King's Man", "year": 2021, "imdb_id": "tt6856242", "tmdb_id": 476669, "tmdb_type": "movie", "type": "movie"}, {"id": 1496503, "title": "Downton Abbey", "year": 2019, "imdb_id": "tt6398184", "tmdb_id": 535544, "tmdb_type": "movie", "type": "movie"}, {"id": 1451009, "title": "Raya and the Last Dragon", "year": 2021, "imdb_id": "tt5109280", "tmdb_id": 527774, "tmdb_type": "movie", "type": "movie"}, {"id": 1176727, "title": "Icarus", "year": 2017, "imdb_id": "tt6333060", "tmdb_id": 432976, "tmdb_type": "movie", "type": "movie"}, {"id": 1450054, "title": "Avengers: Endgame", "year": 2019, "imdb_id": "tt4154796", "tmdb_id": 299534, "tmdb_type": "movie", "type": "movie"}, {"id": 1295258, "title": "Parasite", "year": 2019, "imdb_id": "tt6751668", "tmdb_id": 496243, "tmdb_type": "movie", "type": "movie"}, {"id": 1286003, "title": "Once Upon a Time\u2026 in Hollywood", "year": 2019, "imdb_id": "tt7131622", "tmdb_id": 466272, "tmdb_type": "movie", "type": "movie"}, {"id": 1193690, "title": "Joker", "year": 2019, "imdb_id": "tt7286456", "tmdb_id": 475557, "tmdb_type": "movie", "type": "movie"}, {"id": 1130468, "title": "F9", "year": 2021, "imdb_id": "tt5433138", "tmdb_id": 385128, "tmdb_type": "movie", "type": "movie"}, {"id": 138100, "title": "Avengers: Infinity War", "year": 2018, "imdb_id": "tt4154756", "tmdb_id": 299536, "tmdb_type": "movie", "type": "movie"}, {"id": 1578516, "title": "I Care a Lot", "year": 2021, "imdb_id": "tt9893250", "tmdb_id": 601666, "tmdb_type": "movie", "type": "movie"}, {"id": 1566260, "title": "Tenet", "year": 2020, "imdb_id": "tt6723592", "tmdb_id": 577922, "tmdb_type": "movie", "type": "movie"}, {"id": 1487859, "title": "Knives Out", "year": 2019, "imdb_id": "tt8946378", "tmdb_id": 546554, "tmdb_type": "movie", "type": "movie"}, {"id": 1514676, "title": "Wolfwalkers", "year": 2020, "imdb_id": "tt5198068", "tmdb_id": 441130, "tmdb_type": "movie", "type": "movie"}, {"id": 1495244, "title": "The Conjuring: The Devil Made Me Do It", "year": 2021, "imdb_id": "tt7069210", "tmdb_id": 423108, "tmdb_type": "movie", "type": "movie"}, {"id": 1486125, "title": "The French Dispatch", "year": 2021, "imdb_id": "tt8847712", "tmdb_id": 542178, "tmdb_type": "movie", "type": "movie"}, {"id": 1357727, "title": "Split", "year": 2017, "imdb_id": "tt4972582", "tmdb_id": 381288, "tmdb_type": "movie", "type": "movie"}, {"id": 1237798, "title": "Loving Vincent", "year": 2017, "imdb_id": "tt3262342", "tmdb_id": 339877, "tmdb_type": "movie", "type": "movie"}, {"id": 1137596, "title": "Ford v Ferrari", "year": 2019, "imdb_id": "tt1950186", "tmdb_id": 359724, "tmdb_type": "movie", "type": "movie"}, {"id": 178503, "title": "Coco", "year": 2017, "imdb_id": "tt2380307", "tmdb_id": 354912, "tmdb_type": "movie", "type": "movie"}, {"id": 1471728, "title": "Wonder Woman", "year": 2017, "imdb_id": "tt0451279", "tmdb_id": 297762, "tmdb_type": "movie", "type": "movie"}, {"id": 132421, "title": "Aquaman", "year": 2018, "imdb_id": "tt1477834", "tmdb_id": 297802, "tmdb_type": "movie", "type": "movie"}, {"id": 1455450, "title": "Venom", "year": 2018, "imdb_id": "tt1270797", "tmdb_id": 335983, "tmdb_type": "movie", "type": "movie"}, {"id": 1431650, "title": "Thor: Ragnarok", "year": 2017, "imdb_id": "tt3501632", "tmdb_id": 284053, "tmdb_type": "movie", "type": "movie"}, {"id": 1359310, "title": "Star Wars: The Last Jedi", "year": 2017, "imdb_id": "tt2527336", "tmdb_id": 181808, "tmdb_type": "movie", "type": "movie"}, {"id": 1359294, "title": "Star Wars: The Rise of Skywalker", "year": 2019, "imdb_id": "tt2527338", "tmdb_id": 181812, "tmdb_type": "movie", "type": "movie"}, {"id": 1357317, "title": "Spider-Man: Into the Spider-Verse", "year": 2018, "imdb_id": "tt4633694", "tmdb_id": 324857, "tmdb_type": "movie", "type": "movie"}, {"id": 1357316, "title": "Spider-Man: Homecoming", "year": 2017, "imdb_id": "tt2250912", "tmdb_id": 315635, "tmdb_type": "movie", "type": "movie"}, {"id": 1357314, "title": "Spider-Man: Far From Home", "year": 2019, "imdb_id": "tt6320628", "tmdb_id": 429617, "tmdb_type": "movie", "type": "movie"}, {"id": 1317301, "title": "Ready Player One", "year": 2018, "imdb_id": "tt1677720", "tmdb_id": 333339, "tmdb_type": "movie", "type": "movie"}, {"id": 1193411, "title": "John Wick: Chapter 2", "year": 2017, "imdb_id": "tt4425200", "tmdb_id": 324552, "tmdb_type": "movie", "type": "movie"}, {"id": 1232710, "title": "Logan", "year": 2017, "imdb_id": "tt3315342", "tmdb_id": 263115, "tmdb_type": "movie", "type": "movie"}, {"id": 1187106, "title": "It", "year": 2017, "imdb_id": "tt1396484", "tmdb_id": 346364, "tmdb_type": "movie", "type": "movie"}, {"id": 1154249, "title": "Guardians of the Galaxy Vol. 2", "year": 2017, "imdb_id": "tt3896198", "tmdb_id": 283995, "tmdb_type": "movie", "type": "movie"}, {"id": 1153138, "title": "Green Book", "year": 2018, "imdb_id": "tt6966692", "tmdb_id": 490132, "tmdb_type": "movie", "type": "movie"}, {"id": 1146471, "title": "Get Out", "year": 2017, "imdb_id": "tt5052448", "tmdb_id": 419430, "tmdb_type": "movie", "type": "movie"}, {"id": 1112684, "title": "Dunkirk", "year": 2017, "imdb_id": "tt5013056", "tmdb_id": 374720, "tmdb_type": "movie", "type": "movie"}, {"id": 194188, "title": "Deadpool 2", "year": 2018, "imdb_id": "tt5463162", "tmdb_id": 383498, "tmdb_type": "movie", "type": "movie"}, {"id": 167043, "title": "Captain Marvel", "year": 2019, "imdb_id": "tt4154664", "tmdb_id": 299537, "tmdb_type": "movie", "type": "movie"}, {"id": 156751, "title": "Bohemian Rhapsody", "year": 2018, "imdb_id": "tt1727824", "tmdb_id": 424694, "tmdb_type": "movie", "type": "movie"}, {"id": 153801, "title": "Blade Runner 2049", "year": 2017, "imdb_id": "tt1856101", "tmdb_id": 335984, "tmdb_type": "movie", "type": "movie"}, {"id": 153257, "title": "Black Panther", "year": 2018, "imdb_id": "tt1825683", "tmdb_id": 284054, "tmdb_type": "movie", "type": "movie"}, {"id": 139792, "title": "Baby Driver", "year": 2017, "imdb_id": "tt3890160", "tmdb_id": 339403, "tmdb_type": "movie", "type": "movie"}, {"id": 110429, "title": "A Quiet Place", "year": 2018, "imdb_id": "tt6644200", "tmdb_id": 447332, "tmdb_type": "movie", "type": "movie"}, {"id": 1629773, "title": "Seaspiracy", "year": 2021, "imdb_id": "tt14152756", "tmdb_id": 801058, "tmdb_type": "movie", "type": "movie"}, {"id": 1612212, "title": "The Witcher: Nightmare of the Wolf", "year": 2021, "imdb_id": "tt11657662", "tmdb_id": 666243, "tmdb_type": "movie", "type": "movie"}, {"id": 1583730, "title": "King Richard", "year": 2021, "imdb_id": "tt9620288", "tmdb_id": 614917, "tmdb_type": "movie", "type": "movie"}, {"id": 1583605, "title": "The Guilty", "year": 2021, "imdb_id": "tt9421570", "tmdb_id": 567748, "tmdb_type": "movie", "type": "movie"}, {"id": 1579749, "title": "The Mitchells vs. the Machines", "year": 2021, "imdb_id": "tt7979580", "tmdb_id": 501929, "tmdb_type": "movie", "type": "movie"}, {"id": 1578757, "title": "The Little Things", "year": 2021, "imdb_id": "tt10016180", "tmdb_id": 602269, "tmdb_type": "movie", "type": "movie"}, {"id": 1526288, "title": "Soul", "year": 2020, "imdb_id": "tt2948372", "tmdb_id": 508442, "tmdb_type": "movie", "type": "movie"}, {"id": 1513054, "title": "The Gentlemen", "year": 2020, "imdb_id": "tt8367814", "tmdb_id": 522627, "tmdb_type": "movie", "type": "movie"}, {"id": 1181843, "title": "In the Heights", "year": 2021, "imdb_id": "tt1321510", "tmdb_id": 467909, "tmdb_type": "movie", "type": "movie"}, {"id": 1615856, "title": "Licorice Pizza", "year": 2021, "imdb_id": "tt11271038", "tmdb_id": 718032, "tmdb_type": "movie", "type": "movie"}, {"id": 1451390, "title": "They Shall Not Grow Old", "year": 2018, "imdb_id": "tt7905466", "tmdb_id": 543580, "tmdb_type": "movie", "type": "movie"}, {"id": 1431933, "title": "Three Billboards Outside Ebbing, Missouri", "year": 2017, "imdb_id": "tt5027774", "tmdb_id": 359940, "tmdb_type": "movie", "type": "movie"}, {"id": 1506279, "title": "Jojo Rabbit", "year": 2019, "imdb_id": "tt2584384", "tmdb_id": 515001, "tmdb_type": "movie", "type": "movie"}, {"id": 1484247, "title": "Midsommar", "year": 2019, "imdb_id": "tt8772262", "tmdb_id": 530385, "tmdb_type": "movie", "type": "movie"}, {"id": 1418734, "title": "The Shape of Water", "year": 2017, "imdb_id": "tt5580390", "tmdb_id": 399055, "tmdb_type": "movie", "type": "movie"}, {"id": 1399319, "title": "The Irishman", "year": 2019, "imdb_id": "tt1302006", "tmdb_id": 398978, "tmdb_type": "movie", "type": "movie"}, {"id": 1353638, "title": "Solo: A Star Wars Story", "year": 2018, "imdb_id": "tt3778644", "tmdb_id": 348350, "tmdb_type": "movie", "type": "movie"}, {"id": 1302001, "title": "Pirates of the Caribbean: Dead Men Tell No Tales", "year": 2017, "imdb_id": "tt1790809", "tmdb_id": 166426, "tmdb_type": "movie", "type": "movie"}, {"id": 1343132, "title": "Shazam!", "year": 2019, "imdb_id": "tt0448115", "tmdb_id": 287947, "tmdb_type": "movie", "type": "movie"}, {"id": 1257215, "title": "Mission: Impossible - Fallout", "year": 2018, "imdb_id": "tt4912910", "tmdb_id": 353081, "tmdb_type": "movie", "type": "movie"}, {"id": 1207603, "title": "Kong: Skull Island", "year": 2017, "imdb_id": "tt3731562", "tmdb_id": 293167, "tmdb_type": "movie", "type": "movie"}, {"id": 1205325, "title": "Kingsman: The Golden Circle", "year": 2017, "imdb_id": "tt4649466", "tmdb_id": 343668, "tmdb_type": "movie", "type": "movie"}, {"id": 1196323, "title": "Justice League", "year": 2017, "imdb_id": "tt0974015", "tmdb_id": 141052, "tmdb_type": "movie", "type": "movie"}, {"id": 1195870, "title": "Jurassic World: Fallen Kingdom", "year": 2018, "imdb_id": "tt4881806", "tmdb_id": 351286, "tmdb_type": "movie", "type": "movie"}, {"id": 1195407, "title": "Jumanji: Welcome to the Jungle", "year": 2017, "imdb_id": "tt2283362", "tmdb_id": 353486, "tmdb_type": "movie", "type": "movie"}, {"id": 1193410, "title": "John Wick: Chapter 3 - Parabellum", "year": 2019, "imdb_id": "tt6146586", "tmdb_id": 458156, "tmdb_type": "movie", "type": "movie"}, {"id": 1163858, "title": "Hereditary", "year": 2018, "imdb_id": "tt7784604", "tmdb_id": 493922, "tmdb_type": "movie", "type": "movie"}, {"id": 151959, "title": "Bird Box", "year": 2018, "imdb_id": "tt2737304", "tmdb_id": 405774, "tmdb_type": "movie", "type": "movie"}, {"id": 145560, "title": "Beauty and the Beast", "year": 2017, "imdb_id": "tt2771200", "tmdb_id": 321612, "tmdb_type": "movie", "type": "movie"}, {"id": 130818, "title": "Ant-Man and the Wasp", "year": 2018, "imdb_id": "tt5095030", "tmdb_id": 363088, "tmdb_type": "movie", "type": "movie"}, {"id": 130381, "title": "Annihilation", "year": 2018, "imdb_id": "tt2798920", "tmdb_id": 300668, "tmdb_type": "movie", "type": "movie"}, {"id": 111286, "title": "A Star Is Born", "year": 2018, "imdb_id": "tt1517451", "tmdb_id": 332562, "tmdb_type": "movie", "type": "movie"}, {"id": 1592429, "title": "The Unforgivable", "year": 2021, "imdb_id": "tt11233960", "tmdb_id": 645886, "tmdb_type": "movie", "type": "movie"}, {"id": 1586594, "title": "El Camino: A Breaking Bad Movie", "year": 2019, "imdb_id": "tt9243946", "tmdb_id": 559969, "tmdb_type": "movie", "type": "movie"}, {"id": 1585238, "title": "The Platform", "year": 2019, "imdb_id": "tt8228288", "tmdb_id": 619264, "tmdb_type": "movie", "type": "movie"}, {"id": 1579852, "title": "The Green Knight", "year": 2021, "imdb_id": "tt9243804", "tmdb_id": 559907, "tmdb_type": "movie", "type": "movie"}, {"id": 1568247, "title": "Hitman's Wife's Bodyguard", "year": 2021, "imdb_id": "tt8385148", "tmdb_id": 522931, "tmdb_type": "movie", "type": "movie"}, {"id": 1555123, "title": "Palmer", "year": 2021, "imdb_id": "tt6857376", "tmdb_id": 458220, "tmdb_type": "movie", "type": "movie"}, {"id": 1536551, "title": "Malignant", "year": 2021, "imdb_id": "tt3811906", "tmdb_id": 619778, "tmdb_type": "movie", "type": "movie"}, {"id": 1518160, "title": "Uncut Gems", "year": 2019, "imdb_id": "tt5727208", "tmdb_id": 473033, "tmdb_type": "movie", "type": "movie"}, {"id": 1505741, "title": "Extraction", "year": 2020, "imdb_id": "tt8936646", "tmdb_id": 545609, "tmdb_type": "movie", "type": "movie"}, {"id": 1450944, "title": "Marriage Story", "year": 2019, "imdb_id": "tt7653254", "tmdb_id": 492188, "tmdb_type": "movie", "type": "movie"}, {"id": 1148879, "title": "Glass", "year": 2019, "imdb_id": "tt6823368", "tmdb_id": 450465, "tmdb_type": "movie", "type": "movie"}, {"id": 1494390, "title": "Birds of Prey (and the Fantabulous Emancipation of One Harley Quinn)", "year": 2020, "imdb_id": "tt7713068", "tmdb_id": 495764, "tmdb_type": "movie", "type": "movie"}, {"id": 1469674, "title": "Wind River", "year": 2017, "imdb_id": "tt5362988", "tmdb_id": 395834, "tmdb_type": "movie", "type": "movie"}, {"id": 1461946, "title": "War for the Planet of the Apes", "year": 2017, "imdb_id": "tt3450958", "tmdb_id": 281338, "tmdb_type": "movie", "type": "movie"}, {"id": 1471731, "title": "Wonder Woman 1984", "year": 2020, "imdb_id": "tt7126948", "tmdb_id": 464052, "tmdb_type": "movie", "type": "movie"}, {"id": 1452255, "title": "Us", "year": 2019, "imdb_id": "tt6857112", "tmdb_id": 458723, "tmdb_type": "movie", "type": "movie"}, {"id": 1438469, "title": "Toy Story 4", "year": 2019, "imdb_id": "tt1979376", "tmdb_id": 301528, "tmdb_type": "movie", "type": "movie"}, {"id": 1403456, "title": "The Lion King", "year": 2019, "imdb_id": "tt6105098", "tmdb_id": 420818, "tmdb_type": "movie", "type": "movie"}, {"id": 1395467, "title": "The Greatest Showman", "year": 2017, "imdb_id": "tt1485796", "tmdb_id": 316029, "tmdb_type": "movie", "type": "movie"}, {"id": 1381145, "title": "The Boy Who Harnessed the Wind", "year": 2019, "imdb_id": "tt7533152", "tmdb_id": 491480, "tmdb_type": "movie", "type": "movie"}, {"id": 1264068, "title": "Murder on the Orient Express", "year": 2017, "imdb_id": "tt3402236", "tmdb_id": 392044, "tmdb_type": "movie", "type": "movie"}, {"id": 1263028, "title": "Mudbound", "year": 2017, "imdb_id": "tt2396589", "tmdb_id": 414425, "tmdb_type": "movie", "type": "movie"}, {"id": 1219440, "title": "Lady Bird", "year": 2017, "imdb_id": "tt4925292", "tmdb_id": 391713, "tmdb_type": "movie", "type": "movie"}, {"id": 1195406, "title": "Jumanji: The Next Level", "year": 2019, "imdb_id": "tt7975244", "tmdb_id": 512200, "tmdb_type": "movie", "type": "movie"}, {"id": 1187767, "title": "It Chapter Two", "year": 2019, "imdb_id": "tt7349950", "tmdb_id": 474350, "tmdb_type": "movie", "type": "movie"}, {"id": 1182575, "title": "Incredibles 2", "year": 2018, "imdb_id": "tt3606756", "tmdb_id": 260513, "tmdb_type": "movie", "type": "movie"}, {"id": 165399, "title": "Call Me by Your Name", "year": 2017, "imdb_id": "tt5726616", "tmdb_id": 398818, "tmdb_type": "movie", "type": "movie"}, {"id": 122224, "title": "Alita: Battle Angel", "year": 2019, "imdb_id": "tt0437086", "tmdb_id": 399579, "tmdb_type": "movie", "type": "movie"}, {"id": 1129889, "title": "Fantastic Beasts: The Crimes of Grindelwald", "year": 2018, "imdb_id": "tt4123430", "tmdb_id": 338952, "tmdb_type": "movie", "type": "movie"}, {"id": 122082, "title": "Alien: Covenant", "year": 2017, "imdb_id": "tt2316204", "tmdb_id": 126889, "tmdb_type": "movie", "type": "movie"}, {"id": 120878, "title": "Aladdin", "year": 2019, "imdb_id": "tt6139732", "tmdb_id": 420817, "tmdb_type": "movie", "type": "movie"}, {"id": 1619746, "title": "The Worst Person in the World", "year": 2021, "imdb_id": "tt10370710", "tmdb_id": 660120, "tmdb_type": "movie", "type": "movie"}, {"id": 1585128, "title": "Halloween Kills", "year": 2021, "imdb_id": "tt10665338", "tmdb_id": 610253, "tmdb_type": "movie", "type": "movie"}, {"id": 1572987, "title": "Fear Street: 1994", "year": 2021, "imdb_id": "tt6566576", "tmdb_id": 591273, "tmdb_type": "movie", "type": "movie"}, {"id": 1538334, "title": "tick, tick... BOOM!", "year": 2021, "imdb_id": "tt8721424", "tmdb_id": 537116, "tmdb_type": "movie", "type": "movie"}, {"id": 1403325, "title": "The Lighthouse", "year": 2019, "imdb_id": "tt7984734", "tmdb_id": 503919, "tmdb_type": "movie", "type": "movie"}, {"id": 1325730, "title": "Ron's Gone Wrong", "year": 2021, "imdb_id": "tt7504818", "tmdb_id": 482321, "tmdb_type": "movie", "type": "movie"}, {"id": 1231641, "title": "Little Women", "year": 2019, "imdb_id": "tt3281548", "tmdb_id": 331482, "tmdb_type": "movie", "type": "movie"}, {"id": 1540132, "title": "The Invisible Man", "year": 2020, "imdb_id": "tt1051906", "tmdb_id": 570670, "tmdb_type": "movie", "type": "movie"}, {"id": 1436507, "title": "Tomb Raider", "year": 2018, "imdb_id": "tt1365519", "tmdb_id": 338970, "tmdb_type": "movie", "type": "movie"}, {"id": 1397210, "title": "The Hitman's Bodyguard", "year": 2017, "imdb_id": "tt1959563", "tmdb_id": 390043, "tmdb_type": "movie", "type": "movie"}, {"id": 1390790, "title": "The Favourite", "year": 2018, "imdb_id": "tt5083738", "tmdb_id": 375262, "tmdb_type": "movie", "type": "movie"}, {"id": 1390755, "title": "The Fate of the Furious", "year": 2017, "imdb_id": "tt4630562", "tmdb_id": 337339, "tmdb_type": "movie", "type": "movie"}, {"id": 1282745, "title": "Ocean's Eight", "year": 2018, "imdb_id": "tt5164214", "tmdb_id": 402900, "tmdb_type": "movie", "type": "movie"}, {"id": 1261298, "title": "mother!", "year": 2017, "imdb_id": "tt5109784", "tmdb_id": 381283, "tmdb_type": "movie", "type": "movie"}, {"id": 1229054, "title": "Life", "year": 2017, "imdb_id": "tt5442430", "tmdb_id": 395992, "tmdb_type": "movie", "type": "movie"}, {"id": 1204816, "title": "King Arthur: Legend of the Sword", "year": 2017, "imdb_id": "tt1972591", "tmdb_id": 274857, "tmdb_type": "movie", "type": "movie"}, {"id": 1176462, "title": "I, Tonya", "year": 2017, "imdb_id": "tt5580036", "tmdb_id": 389015, "tmdb_type": "movie", "type": "movie"}, {"id": 1143678, "title": "Game Night", "year": 2018, "imdb_id": "tt2704998", "tmdb_id": 445571, "tmdb_type": "movie", "type": "movie"}, {"id": 1167187, "title": "Fast & Furious Presents: Hobbs & Shaw", "year": 2019, "imdb_id": "tt6806448", "tmdb_id": 384018, "tmdb_type": "movie", "type": "movie"}, {"id": 1150103, "title": "Godzilla: King of the Monsters", "year": 2019, "imdb_id": "tt3741700", "tmdb_id": 373571, "tmdb_type": "movie", "type": "movie"}, {"id": 152624, "title": "BlacKkKlansman", "year": 2018, "imdb_id": "tt7349662", "tmdb_id": 487558, "tmdb_type": "movie", "type": "movie"}, {"id": 1619381, "title": "Army of Thieves", "year": 2021, "imdb_id": "tt13024674", "tmdb_id": 796499, "tmdb_type": "movie", "type": "movie"}, {"id": 1606353, "title": "The Rescue", "year": 2021, "imdb_id": "tt9098872", "tmdb_id": 680058, "tmdb_type": "movie", "type": "movie"}, {"id": 1583961, "title": "Minari", "year": 2021, "imdb_id": "tt10633456", "tmdb_id": 615643, "tmdb_type": "movie", "type": "movie"}, {"id": 1577548, "title": "The Father", "year": 2020, "imdb_id": "tt10272386", "tmdb_id": 600354, "tmdb_type": "movie", "type": "movie"}, {"id": 1564077, "title": "Enola Holmes", "year": 2020, "imdb_id": "tt7846844", "tmdb_id": 497582, "tmdb_type": "movie", "type": "movie"}, {"id": 1563661, "title": "Promising Young Woman", "year": 2020, "imdb_id": "tt9620292", "tmdb_id": 582014, "tmdb_type": "movie", "type": "movie"}, {"id": 1559109, "title": "Ready or Not", "year": 2019, "imdb_id": "tt7798634", "tmdb_id": 567609, "tmdb_type": "movie", "type": "movie"}, {"id": 1537381, "title": "The Art of Racing in the Rain", "year": 2019, "imdb_id": "tt1478839", "tmdb_id": 522924, "tmdb_type": "movie", "type": "movie"}, {"id": 1511189, "title": "West Side Story", "year": 2021, "imdb_id": "tt3581652", "tmdb_id": 511809, "tmdb_type": "movie", "type": "movie"}, {"id": 1480917, "title": "Zombieland: Double Tap", "year": 2019, "imdb_id": "tt1560220", "tmdb_id": 338967, "tmdb_type": "movie", "type": "movie"}, {"id": 1106882, "title": "Doctor Sleep", "year": 2019, "imdb_id": "tt5606664", "tmdb_id": 501170, "tmdb_type": "movie", "type": "movie"}, {"id": 1647031, "title": "14 Peaks: Nothing Is Impossible", "year": 2021, "imdb_id": "tt14079374", "tmdb_id": 890825, "tmdb_type": "movie", "type": "movie"}, {"id": 1472956, "title": "Dark Phoenix", "year": 2019, "imdb_id": "tt6565702", "tmdb_id": 320288, "tmdb_type": "movie", "type": "movie"}, {"id": 1589853, "title": "Pig", "year": 2021, "imdb_id": "tt11003218", "tmdb_id": 635731, "tmdb_type": "movie", "type": "movie"}, {"id": 1453511, "title": "Valerian and the City of a Thousand Planets", "year": 2017, "imdb_id": "tt2239822", "tmdb_id": 339964, "tmdb_type": "movie", "type": "movie"}, {"id": 1451780, "title": "Upgrade", "year": 2018, "imdb_id": "tt6499752", "tmdb_id": 500664, "tmdb_type": "movie", "type": "movie"}, {"id": 1451289, "title": "Terminator: Dark Fate", "year": 2019, "imdb_id": "tt6450804", "tmdb_id": 290859, "tmdb_type": "movie", "type": "movie"}, {"id": 1408504, "title": "The Mummy", "year": 2017, "imdb_id": "tt2345759", "tmdb_id": 282035, "tmdb_type": "movie", "type": "movie"}, {"id": 1407015, "title": "The Meg", "year": 2018, "imdb_id": "tt4779682", "tmdb_id": 345940, "tmdb_type": "movie", "type": "movie"}, {"id": 1400398, "title": "The Killing of a Sacred Deer", "year": 2017, "imdb_id": "tt5715874", "tmdb_id": 399057, "tmdb_type": "movie", "type": "movie"}, {"id": 1399228, "title": "The Invisible Guest", "year": 2017, "imdb_id": "tt4857264", "tmdb_id": 411088, "tmdb_type": "movie", "type": "movie"}, {"id": 1389629, "title": "The Equalizer 2", "year": 2018, "imdb_id": "tt3766354", "tmdb_id": 345887, "tmdb_type": "movie", "type": "movie"}, {"id": 1348722, "title": "Sing 2", "year": 2021, "imdb_id": "tt6467266", "tmdb_id": 438695, "tmdb_type": "movie", "type": "movie"}, {"id": 1318524, "title": "Red Sparrow", "year": 2018, "imdb_id": "tt2873282", "tmdb_id": 401981, "tmdb_type": "movie", "type": "movie"}, {"id": 1315815, "title": "Rampage", "year": 2018, "imdb_id": "tt2231461", "tmdb_id": 427641, "tmdb_type": "movie", "type": "movie"}, {"id": 1315562, "title": "Ralph Breaks the Internet", "year": 2018, "imdb_id": "tt5848272", "tmdb_id": 404368, "tmdb_type": "movie", "type": "movie"}, {"id": 1134425, "title": "First Man", "year": 2018, "imdb_id": "tt1213641", "tmdb_id": 369972, "tmdb_type": "movie", "type": "movie"}, {"id": 190332, "title": "Darkest Hour", "year": 2017, "imdb_id": "tt4555426", "tmdb_id": 399404, "tmdb_type": "movie", "type": "movie"}, {"id": 183840, "title": "Crazy Rich Asians", "year": 2018, "imdb_id": "tt3104988", "tmdb_id": 455207, "tmdb_type": "movie", "type": "movie"}, {"id": 1258765, "title": "Molly's Game", "year": 2017, "imdb_id": "tt4209788", "tmdb_id": 396371, "tmdb_type": "movie", "type": "movie"}, {"id": 1141232, "title": "Frozen II", "year": 2019, "imdb_id": "tt4520988", "tmdb_id": 330457, "tmdb_type": "movie", "type": "movie"}, {"id": 144814, "title": "Baywatch", "year": 2017, "imdb_id": "tt1469304", "tmdb_id": 339846, "tmdb_type": "movie", "type": "movie"}, {"id": 140508, "title": "Bad Boys for Life", "year": 2020, "imdb_id": "tt1502397", "tmdb_id": 38700, "tmdb_type": "movie", "type": "movie"}], "page": 1, "total_pages": 815, "total_results": 162897}